%YAML 1.1
%TAG !u! tag:unity3d.com,2011:
--- !u!1 &3120486264062589810
GameObject:
  m_ObjectHideFlags: 0
  m_CorrespondingSourceObject: {fileID: 0}
  m_PrefabInstance: {fileID: 0}
  m_PrefabAsset: {fileID: 0}
  serializedVersion: 6
  m_Component:
  - component: {fileID: 7976390431086979217}
  m_Layer: 0
  m_Name: SpawnPivot_A2_HUGE
  m_TagString: Untagged
  m_Icon: {fileID: 0}
  m_NavMeshLayer: 0
  m_StaticEditorFlags: 0
  m_IsActive: 1
--- !u!4 &7976390431086979217
Transform:
  m_ObjectHideFlags: 0
  m_CorrespondingSourceObject: {fileID: 0}
  m_PrefabInstance: {fileID: 0}
  m_PrefabAsset: {fileID: 0}
  m_GameObject: {fileID: 3120486264062589810}
  m_LocalRotation: {x: -0, y: -0, z: -0, w: 1}
  m_LocalPosition: {x: 0, y: 0.1876, z: 0}
  m_LocalScale: {x: 0.08540338, y: 0.08540338, z: 0.08540338}
  m_Children:
  - {fileID: 160996127632219862}
  m_Father: {fileID: 0}
  m_RootOrder: 0
  m_LocalEulerAnglesHint: {x: 0, y: 0, z: 0}
--- !u!1001 &8921324983553638388
PrefabInstance:
  m_ObjectHideFlags: 0
  serializedVersion: 2
  m_Modification:
    m_TransformParent: {fileID: 7976390431086979217}
    m_Modifications:
    - target: {fileID: 4293188592349788463, guid: 6ec3f6a8b693e0b469e869d77d127fdc,
        type: 3}
      propertyPath: m_Name
      value: Asteroid 2_HUGE
      objectReference: {fileID: 0}
    - target: {fileID: 8787948863063548194, guid: 6ec3f6a8b693e0b469e869d77d127fdc,
        type: 3}
      propertyPath: m_LocalPosition.x
      value: 0
      objectReference: {fileID: 0}
    - target: {fileID: 8787948863063548194, guid: 6ec3f6a8b693e0b469e869d77d127fdc,
        type: 3}
      propertyPath: m_LocalPosition.y
      value: -2.1966343
      objectReference: {fileID: 0}
    - target: {fileID: 8787948863063548194, guid: 6ec3f6a8b693e0b469e869d77d127fdc,
        type: 3}
      propertyPath: m_LocalPosition.z
      value: 0
      objectReference: {fileID: 0}
    - target: {fileID: 8787948863063548194, guid: 6ec3f6a8b693e0b469e869d77d127fdc,
        type: 3}
      propertyPath: m_LocalRotation.x
      value: -0
      objectReference: {fileID: 0}
    - target: {fileID: 8787948863063548194, guid: 6ec3f6a8b693e0b469e869d77d127fdc,
        type: 3}
      propertyPath: m_LocalRotation.y
      value: -0
      objectReference: {fileID: 0}
    - target: {fileID: 8787948863063548194, guid: 6ec3f6a8b693e0b469e869d77d127fdc,
        type: 3}
      propertyPath: m_LocalRotation.z
      value: -0
      objectReference: {fileID: 0}
    - target: {fileID: 8787948863063548194, guid: 6ec3f6a8b693e0b469e869d77d127fdc,
        type: 3}
      propertyPath: m_LocalRotation.w
      value: 1
      objectReference: {fileID: 0}
    - target: {fileID: 8787948863063548194, guid: 6ec3f6a8b693e0b469e869d77d127fdc,
        type: 3}
      propertyPath: m_RootOrder
      value: 0
      objectReference: {fileID: 0}
    - target: {fileID: 8787948863063548194, guid: 6ec3f6a8b693e0b469e869d77d127fdc,
        type: 3}
      propertyPath: m_LocalEulerAnglesHint.x
      value: 0
      objectReference: {fileID: 0}
    - target: {fileID: 8787948863063548194, guid: 6ec3f6a8b693e0b469e869d77d127fdc,
        type: 3}
      propertyPath: m_LocalEulerAnglesHint.y
      value: 0
      objectReference: {fileID: 0}
    - target: {fileID: 8787948863063548194, guid: 6ec3f6a8b693e0b469e869d77d127fdc,
        type: 3}
      propertyPath: m_LocalEulerAnglesHint.z
      value: 0
      objectReference: {fileID: 0}
    m_RemovedComponents: []
  m_SourcePrefab: {fileID: 100100000, guid: 6ec3f6a8b693e0b469e869d77d127fdc, type: 3}
--- !u!4 &160996127632219862 stripped
Transform:
  m_CorrespondingSourceObject: {fileID: 8787948863063548194, guid: 6ec3f6a8b693e0b469e869d77d127fdc,
    type: 3}
  m_PrefabInstance: {fileID: 8921324983553638388}
  m_PrefabAsset: {fileID: 0}
